,,1st,2nd,3rd,4th,5th,6th,7th,8th
Federal,A,0,"53,359","106,717","165,430","235,675",,,
,R,0.15,0.205,0.26,0.29,0.33,,,
,K,0,"2,935","8,804","13,767","23,194",,,
AB,A,0,"142,292","170,751","227,668","341,502",,,
,V,0.1,0.12,0.13,0.14,0.15,,,
,KP,0,"2,846","4,553","6,830","10,245",,,
BC,A,0,"45,654","91,310","104,835","127,299","172,602","240,716",
,V,0.0506,0.077,0.105,0.1229,0.147,0.168,0.205,
,KP,0,"1,205","3,762","5,638","8,706","12,331","21,238",
MB,A,0,"36,842","79,625",,,,,
,V,0.108,0.1275,0.174,,,,,
,KP,0,718,"4,421",,,,,
NB,A,0,"47,715","95,431","176,756",,,,
,V,0.094,0.14,0.16,0.195,,,,
,KP,0,"2,195","4,104","10,290",,,,
NL,A,0,"41,457","82,913","148,027","207,239","264,750","529,500","1,059,000"
,V,0.087,0.145,0.158,0.178,0.198,0.208,0.213,0.218
,KP,0,"2,405","3,482","6,443","10,588","13,235","15,883","21,178"
NS,A,0,"29,590","59,180","93,000","150,000",,,
,V,0.0879,0.1495,0.1667,0.175,0.21,,,
,KP,0,"1,823","2,841","3,613","8,863",,,
NT,A,0,"48,326","96,655","157,139",,,,
,V,0.059,0.086,0.122,0.1405,,,,
,KP,0,"1,305","4,784","7,691",,,,
NU,A,0,"50,877","101,754","165,429",,,,
,V,0.04,0.07,0.09,0.115,,,,
,KP,0,"1,526","3,561","7,697",,,,
ON,A,0,"49,231","98,463","150,000","220,000",,,
,V,0.0505,0.0915,0.1116,0.1216,0.1316,,,
,KP,0,"2,018","3,998","5,498","7,698",,,
PE,A,0,"31,984","63,969",,,,,
,V,0.098,0.138,0.167,,,,,
,KP,0,"1,279","3,134",,,,,
SK,A,0,"49,720","142,058",,,,,
,V,0.105,0.125,0.145,,,,,
,KP,0,994,"3,836",,,,,
YT,A,0,"53,359","106,717","165,430","500,000",,,
,V,0.064,0.09,0.109,0.128,0.15,,,
,KP,0,"1,387","3,415","6,558","17,558",,,
